; Engine configuration file.
; It's best edited using the editor UI and not directly,
; since the parameters that go here are not all obvious.
;
; Format:
;   [section] ; section goes between []
;   param=value ; assign values to parameters

config_version=5

[application]

config/name="MetaStrokeTest"
run/main_scene="res://MetaStrokeTest.tscn"
config/features=PackedStringArray("4.2")
config/icon="res://icon.png"

[display]

window/size/viewport_width=1200
window/size/viewport_height=720
window/size/resizable=false

[input]

mouseRotate={
"deadzone": 0.5,
"events": [Object(InputEventMouseButton,"resource_local_to_scene":false,"resource_name":"","device":-1,"window_id":0,"alt_pressed":false,"shift_pressed":false,"ctrl_pressed":false,"meta_pressed":false,"button_mask":0,"position":Vector2(0, 0),"global_position":Vector2(0, 0),"factor":1.0,"button_index":3,"canceled":false,"pressed":false,"double_click":false,"script":null)
]
}
click={
"deadzone": 0.5,
"events": [Object(InputEventMouseButton,"resource_local_to_scene":false,"resource_name":"","device":-1,"window_id":0,"alt_pressed":false,"shift_pressed":false,"ctrl_pressed":false,"meta_pressed":false,"button_mask":0,"position":Vector2(0, 0),"global_position":Vector2(0, 0),"factor":1.0,"button_index":1,"canceled":false,"pressed":false,"double_click":false,"script":null)
]
}
rightClick={
"deadzone": 0.5,
"events": [Object(InputEventMouseButton,"resource_local_to_scene":false,"resource_name":"","device":-1,"window_id":0,"alt_pressed":false,"shift_pressed":false,"ctrl_pressed":false,"meta_pressed":false,"button_mask":0,"position":Vector2(0, 0),"global_position":Vector2(0, 0),"factor":1.0,"button_index":2,"canceled":false,"pressed":false,"double_click":false,"script":null)
]
}
scrollUp={
"deadzone": 0.5,
"events": [Object(InputEventMouseButton,"resource_local_to_scene":false,"resource_name":"","device":-1,"window_id":0,"alt_pressed":false,"shift_pressed":false,"ctrl_pressed":false,"meta_pressed":false,"button_mask":0,"position":Vector2(0, 0),"global_position":Vector2(0, 0),"factor":1.0,"button_index":4,"canceled":false,"pressed":false,"double_click":false,"script":null)
]
}
scrollDown={
"deadzone": 0.5,
"events": [Object(InputEventMouseButton,"resource_local_to_scene":false,"resource_name":"","device":-1,"window_id":0,"alt_pressed":false,"shift_pressed":false,"ctrl_pressed":false,"meta_pressed":false,"button_mask":0,"position":Vector2(0, 0),"global_position":Vector2(0, 0),"factor":1.0,"button_index":5,"canceled":false,"pressed":false,"double_click":false,"script":null)
]
}

[rendering]

shading/overrides/force_vertex_shading=true
driver/depth_prepass/enable=false
environment/defaults/default_clear_color=Color(0.54902, 0.54902, 0.54902, 1)
environment/defaults/default_environment="res://default_env.tres"
quality/driver/driver_name="GLES2"
quality/intended_usage/framebuffer_allocation=3
quality/directional_shadow/size=512
quality/directional_shadow/size.mobile=512
lights_and_shadows/shadow_atlas/size=512
lights_and_shadows/shadow_atlas/size.mobile=512
quality/reflections/texture_array_reflections=false
batching/options/use_batching=false
batching/options/use_batching_in_editor=false
quality/depth/hdr=false
quality/dynamic_fonts/use_oversampling=false
